<svg xmlns="http://www.w3.org/2000/svg" width="66" height="59" viewBox="0 0 66 59">
    <g fill="#E73E07" fill-rule="evenodd" stroke="#E73E07">
        <path fill-rule="nonzero" d="M58.333 58.333H7.667A6.674 6.674 0 0 1 1 51.667v-44A6.674 6.674 0 0 1 7.667 1h50.666A6.674 6.674 0 0 1 65 7.667v44a6.674 6.674 0 0 1-6.667 6.666zM7.667 3.667c-2.206 0-4 1.794-4 4v44c0 2.206 1.794 4 4 4h50.666c2.206 0 4-1.794 4-4v-44c0-2.206-1.794-4-4-4H7.667z"/>
        <path d="M55.667 14.333H10.333a1.334 1.334 0 0 1 0-2.666h45.334a1.334 1.334 0 0 1 0 2.666zM47.667 21H18.333a1.334 1.334 0 0 1 0-2.667h29.334a1.334 1.334 0 0 1 0 2.667z"/>
        <path fill-rule="nonzero" d="M21 47.667H10.333A1.334 1.334 0 0 1 9 46.333V33c0-.736.597-1.333 1.333-1.333H21c.736 0 1.333.597 1.333 1.333v13.333c0 .736-.597 1.334-1.333 1.334zM11.667 45h8V34.333h-8V45zM38.333 47.667H27.667a1.334 1.334 0 0 1-1.334-1.334V33c0-.736.598-1.333 1.334-1.333h10.666c.736 0 1.334.597 1.334 1.333v13.333c0 .736-.598 1.334-1.334 1.334zM29 45h8V34.333h-8V45zM55.667 47.667H45a1.334 1.334 0 0 1-1.333-1.334V33c0-.736.597-1.333 1.333-1.333h10.667c.736 0 1.333.597 1.333 1.333v13.333c0 .736-.597 1.334-1.333 1.334zM46.333 45h8V34.333h-8V45z"/>
    </g>
</svg>
