<svg xmlns="http://www.w3.org/2000/svg" width="66" height="57" viewBox="0 0 66 57">
    <g fill="#E73E07" fill-rule="evenodd" stroke="#E73E07" stroke-width=".5">
        <path fill-rule="nonzero" d="M59 56.138h-8.64c-.895 0-1.62-.723-1.62-1.615V30.182H17.28v24.301c0 .892-.725 1.615-1.62 1.615H7a1.623 1.623 0 0 1-1.171-.459 1.612 1.612 0 0 1-.489-1.156V30.182H2.62c-.895 0-1.62-.723-1.62-1.615v-6.479c0-.548.279-1.058.74-1.356L32.12 1.255a1.644 1.644 0 0 1 1.76 0l30.38 19.457c.461.298.74.808.74 1.356v6.499c0 .892-.725 1.615-1.62 1.615h-2.72v24.301c.011.442-.16.87-.474 1.183a1.623 1.623 0 0 1-1.186.472zm-7.02-3.25h5.42V28.567c0-.892.725-1.615 1.62-1.615h2.72v-3.987L33 4.645 4.26 22.964v3.987H7c.887.011 1.6.73 1.6 1.615v24.321h5.42V28.567c0-.892.725-1.615 1.62-1.615h34.72c.895 0 1.62.723 1.62 1.615v24.321z"/>
        <path d="M39.673 18.723H26.307c-.926 0-1.676-.661-1.676-1.477 0-.816.75-1.477 1.676-1.477h13.386c.926 0 1.676.661 1.676 1.477 0 .816-.75 1.477-1.676 1.477h-.02z"/>
        <path fill-rule="nonzero" d="M32.893 56.138H22.296a1.578 1.578 0 0 1-1.147-.474 1.601 1.601 0 0 1-.456-1.16v-9.57c0-.881.709-1.596 1.583-1.596h10.617a1.59 1.59 0 0 1 1.583 1.596v9.57c.011.43-.151.846-.45 1.153a1.578 1.578 0 0 1-1.133.481zm-9.013-3.21h7.43v-6.4h-7.43v6.4z"/>
        <path fill-rule="nonzero" d="M43.721 56.138H33.11a1.59 1.59 0 0 1-1.586-1.595v-9.61c0-.88.71-1.595 1.586-1.595h10.612a1.59 1.59 0 0 1 1.586 1.596v9.57a1.6 1.6 0 0 1-.45 1.153 1.582 1.582 0 0 1-1.136.481zm-9.026-3.21h7.44v-6.4h-7.44v6.4z"/>
        <path fill-rule="nonzero" d="M38.798 46.292H28.186A1.59 1.59 0 0 1 26.6 44.7v-9.615c0-.88.71-1.593 1.586-1.593h10.612a1.59 1.59 0 0 1 1.586 1.593v9.595c.006.426-.16.836-.457 1.139a1.583 1.583 0 0 1-1.129.473zm-9.026-3.205h7.44v-6.39h-7.44v6.39z"/>
    </g>
</svg>
